Nombres,Paterno,Materno,Certificado
Franz Nicolas,Granados,Troche,1
Patricia,Del llano,Morris,0
Tania lucero,Tapia,Choque,1
Angela Paola,Soria,De la Torre,0
Daniel Cristhian,Chavez,Lima,0
Cristina,Salazar,Montecinos,1
Roxana Rosa,Ticona,Vino,0
Omar Vladimir,Sanchez,Callisaya,0
Fernando,Larico,Apaza,0
Ivan Raul,Ramos,Morales,1
Marcelo,Guzman,Flores,1
Marco Antonio,Villalba,Laura,0
Nelo Ricardo,Taraniapo,Pacha,0
Norma Rebeca,Tapia,Ticona,0
Maria Jaqueline,Gomez,Quino,0
Nelly Paola,Pinto,Gomez,0
Lizeth,Alba,Ormachea,0
Ximena,Samo,Mamani,0
Cesar,Rojas,Valero,0
Israel,Flores,Medrano,0
Jaime,Flores,Pereyra,0
Rina Valery,Ortega,Condori,1
Ulises Alejandro,Quenta,Choque,0
carmen,ramos,quispe,0
Carmen,Gisberth,Mamani,0
Marco,Salazar,Montecinos,0
Lizbeth Yesenia,Quispe,Condori,0
Nestorina,Velasco,Sanchez,0
Lady Magaly,Pinedo,Rueda,1
Bernardina,Camacho,Camacho,1
Luis Ruben,Ticona,Huanca,1
Gustavo Alberto,Flores,Azurduy,0
Cahel,Maldonado,Delgado,0
Esther Elizabeth,Torrez,Torrez,0
Juan Carlos,Mixto,Laura,1
Felisa Martha,Flores,Torrez,1
Marisabel,Quisbert,Paredes,0
Francisca Carmen,Rios,Loza,0
Max Reynaldo,Muños,Moreno,0
Marcelo Tito,Gutierrez,Rodriguez,0
Ana Maria,Bustillos,Vargas,0
Edwin Fabricio,Saavedra,,2